id,name,model_id:id,group_id:id,perm_read,perm_write,perm_create,perm_unlink
access_plm_requirement_user,plm.requirement.user,model_plm_requirement,base.group_user,1,1,1,1
access_plm_product_bom_line_user,plm.product.bom.line.user,model_plm_product_bom_line,base.group_user,1,1,1,1

